<?xml version="1.0" encoding="UTF-8" standalone="no"?>
<!-- Created with Inkscape (http://www.inkscape.org/) -->

<svg
   width="80mm"
   height="80mm"
   viewBox="0 0 80 80"
   version="1.1"
   id="svg5"
   xml:space="preserve"
   inkscape:export-filename="logo2.svg"
   inkscape:export-xdpi="150"
   inkscape:export-ydpi="150"
   xmlns:inkscape="http://www.inkscape.org/namespaces/inkscape"
   xmlns:sodipodi="http://sodipodi.sourceforge.net/DTD/sodipodi-0.dtd"
   xmlns="http://www.w3.org/2000/svg"
   xmlns:svg="http://www.w3.org/2000/svg"><sodipodi:namedview
     id="namedview7"
     pagecolor="#ffffff"
     bordercolor="#000000"
     borderopacity="0.25"
     inkscape:showpageshadow="2"
     inkscape:pageopacity="0.0"
     inkscape:pagecheckerboard="0"
     inkscape:deskcolor="#d1d1d1"
     inkscape:document-units="mm"
     showgrid="false" /><defs
     id="defs2" /><g
     inkscape:label="Layer 1"
     inkscape:groupmode="layer"
     id="layer1"><g
       id="layer2"
       inkscape:label="Layer 2"
       style="display:inline"
       transform="matrix(10.13461,0,0,10.13461,-4.525536,12.023152)"><path
         style="fill:none;stroke:#00a4e3;stroke-width:0.1905;stroke-linecap:round;stroke-linejoin:round;stroke-dasharray:none;stroke-opacity:1"
         d="M 1.8085985,1.2739935 4.3935412,2.7604024 6.9784792,1.2739935 4.3935412,-0.21241676 Z"
         id="path8421-1-1-3" /><path
         style="fill:none;stroke:#00a4e3;stroke-width:0.191;stroke-linecap:round;stroke-linejoin:round;stroke-dasharray:none;stroke-opacity:1"
         d="M 1.8085985,4.2468127 V 1.2739935 L 4.3935412,2.7604024 V 5.733223 Z"
         id="path8423-0-4-6" /><path
         style="fill:none;stroke:#00a4e3;stroke-width:0.1905;stroke-linecap:round;stroke-linejoin:round;stroke-dasharray:none;stroke-opacity:1"
         d="M 6.9784792,4.2468127 4.3935412,5.733223 V 2.7604024 c 0,0 2.584938,-1.4864089 2.584938,-1.4864089 z"
         id="path8425-6-9-5" /></g></g></svg>
